------------1(3)
---------------1(4)
------------------1(5)
---------------0(4)
------------0(3)
---------1(2)
---------------1(4)
------------1(3)
------------0(3)
---------0(2)
------1(1)
---------------1(4)
---------------0(4)
------------1(3)
---------------0(4)
------------0(3)
---------1(2)
---------------1(4)
------------1(3)
---------0(2)
------0(1)
---/(0)
depth = 5
mean = 3.88889
var = 0.600925
