digraph "antwin.h"
{
 // LATEX_PDF_SIZE
  edge [fontname="Helvetica",fontsize="10",labelfontname="Helvetica",labelfontsize="10"];
  node [fontname="Helvetica",fontsize="10",shape=record];
  Node1 [label="antwin.h",height=0.2,width=0.4,color="black", fillcolor="grey75", style="filled", fontcolor="black",tooltip=" "];
  Node1 -> Node2 [dir="back",color="midnightblue",fontsize="10",style="solid",fontname="Helvetica"];
  Node2 [label="antwin.cpp",height=0.2,width=0.4,color="black", fillcolor="white", style="filled",URL="$antwin_8cpp.html",tooltip=" "];
  Node1 -> Node3 [dir="back",color="midnightblue",fontsize="10",style="solid",fontname="Helvetica"];
  Node3 [label="main.cpp",height=0.2,width=0.4,color="black", fillcolor="white", style="filled",URL="$main_8cpp.html",tooltip=" "];
  Node1 -> Node4 [dir="back",color="midnightblue",fontsize="10",style="solid",fontname="Helvetica"];
  Node4 [label="moc_antwin.cpp",height=0.2,width=0.4,color="black", fillcolor="white", style="filled",URL="$moc__antwin_8cpp.html",tooltip=" "];
}
