digraph "antwin.cpp"
{
 // LATEX_PDF_SIZE
  edge [fontname="Helvetica",fontsize="10",labelfontname="Helvetica",labelfontsize="10"];
  node [fontname="Helvetica",fontsize="10",shape=record];
  Node1 [label="antwin.cpp",height=0.2,width=0.4,color="black", fillcolor="grey75", style="filled", fontcolor="black",tooltip=" "];
  Node1 -> Node2 [color="midnightblue",fontsize="10",style="solid"];
  Node2 [label="antwin.h",height=0.2,width=0.4,color="black", fillcolor="white", style="filled",URL="$antwin_8h.html",tooltip=" "];
  Node2 -> Node3 [color="midnightblue",fontsize="10",style="solid"];
  Node3 [label="QMainWindow",height=0.2,width=0.4,color="grey75", fillcolor="white", style="filled",tooltip=" "];
  Node2 -> Node4 [color="midnightblue",fontsize="10",style="solid"];
  Node4 [label="QPainter",height=0.2,width=0.4,color="grey75", fillcolor="white", style="filled",tooltip=" "];
  Node2 -> Node5 [color="midnightblue",fontsize="10",style="solid"];
  Node5 [label="QString",height=0.2,width=0.4,color="grey75", fillcolor="white", style="filled",tooltip=" "];
  Node2 -> Node6 [color="midnightblue",fontsize="10",style="solid"];
  Node6 [label="QCloseEvent",height=0.2,width=0.4,color="grey75", fillcolor="white", style="filled",tooltip=" "];
  Node2 -> Node7 [color="midnightblue",fontsize="10",style="solid"];
  Node7 [label="antthread.h",height=0.2,width=0.4,color="black", fillcolor="white", style="filled",URL="$antthread_8h.html",tooltip=" "];
  Node7 -> Node8 [color="midnightblue",fontsize="10",style="solid"];
  Node8 [label="QThread",height=0.2,width=0.4,color="grey75", fillcolor="white", style="filled",tooltip=" "];
  Node7 -> Node9 [color="midnightblue",fontsize="10",style="solid"];
  Node9 [label="ant.h",height=0.2,width=0.4,color="black", fillcolor="white", style="filled",URL="$ant_8h.html",tooltip=" "];
  Node2 -> Node9 [color="midnightblue",fontsize="10",style="solid"];
  Node1 -> Node10 [color="midnightblue",fontsize="10",style="solid"];
  Node10 [label="QDebug",height=0.2,width=0.4,color="grey75", fillcolor="white", style="filled",tooltip=" "];
}
